{
    "version": "0.2.1",
    "description": "A command line tool for interacting with the AKA API",
    "homepage": "https://gitlab.oit.duke.edu/devil-ops/akactl",
    "notes": "Autoupdate of akactl",
    "architecture": {
        "64bit": {
            "url": "https://gitlab.oit.duke.edu/devil-ops/akactl/-/releases/v0.2.1/downloads/akactl_0.2.1_windows_amd64.zip",
            "hash": "d21afd163a657b49b2e7fa7de0652818c982ab8157b1a540379f7ec3f031151d",
            "bin": "akactl.exe"
        }
    },
    "checkver": {
        "url": "https://gitlab.oit.duke.edu/api/v4/projects/19506/releases",
        "jp": "$.[0].tag_name",
        "regex": "v([\\d.]+)"
    },
    "autoupdate": {
        "notes": "Autoupdate of akactl",
        "architecture": {
            "64bit": {
                "url": "https://gitlab.oit.duke.edu/devil-ops/akactl/-/releases/v$version/downloads/akactl_$version_windows_amd64.zip",
                "hash": {
                    "url": "https://gitlab.oit.duke.edu/devil-ops/akactl/-/releases/v$version/downloads/akactl_$version_SHA256SUMS"
                },
                "bin": "akactl.exe"
            }
        }
    }
}
